{
  "parent": "block/grass_block",
  "textures" : {
    "particle": "irondimension:block/iron_dirt",
    "bottom":   "irondimension:block/iron_dirt",
    "side":     "irondimension:block/iron_grass_side",
    "overlay":  "irondimension:block/iron_grass_side_overlay",
    "top": "irondimension:block/iron_grass_top"
  }
}