{
    "parent": "block/slab",
    "textures": {
        "bottom": "irondimension:block/smooth_ironstone",
        "top": "irondimension:block/smooth_ironstone",
        "side": "irondimension:block/smooth_ironstone_slab"
    }
}
