{
  "type": "minecraft:crafting_shaped",
  "pattern": [
    "W",
    "W"
  ],
  "key": {
    "W": {
      "tag": "irondimension:iron_planks"
    }
  },
  "result": {
    "item": "irondimension:iron_stick",
    "count": 4
  }
}