{
  "type": "minecraft:crafting_shaped",
  "pattern": [
    "II",
    "IS",
    " S"
  ],
  "key": {
    "I": {
      "item": "irondimension:radioactive_iron_ingot"
    },
    "S": {
      "item": "irondimension:iron_stick"
    }
  },
  "result": {
    "item": "irondimension:radioactive_axe"
  }
}