{
  "type": "minecraft:crafting_shaped",
  "pattern": [
    "BBB",
    "B B",
    "BBB"
  ],
  "key": {
    "B": {
      "item": "minecraft:iron_block"
    }
  },
  "result": {
    "item": "irondimension:iron_dim_portal",
    "count": 1
  }
}