{
  "variants": {
    "axis=y":  { "model": "irondimension:block/stripped_ironwood_log" },
    "axis=z":   { "model": "irondimension:block/stripped_ironwood_log", "x": 90 },
    "axis=x":   { "model": "irondimension:block/stripped_ironwood_log", "x": 90, "y": 90 }
  }
}